…
```
## `summarise()` ungrouping output (override with `.groups` argument)
```

```r
# Show the above result by descending order by :
## 1. maximum number of casualties
arrange(summaryzero[summaryzero$harmful !=0,], desc(harmful), desc(propHarmEvent))
```

```
## # A tibble: 220 x 4
##    EVTYPE            harmful propHarmEvent numEvent
##    <chr>               <dbl>         <dbl>    <int>
##  1 TORNADO              1742        0.131     60652
##  2 ICE STORM            1569        0.0474     2006
##  3 FLOOD                 802        0.0162    25326
##  4 HURRICANE/TYPHOON     787        0.295        88
##  5 HEAT                  583        0.272       767
##  6 EXCESSIVE HEAT        521        0.404      1678
##  7 BLIZZARD              390        0.0316     2719
##  8 HEAT WAVE             202        0.405        74
##  9 TROPICAL STORM        201        0.0609      690
## 10 HEAVY SNOW            185        0.0120    15708
## # ... with 210 more rows
```

```r
## 2.proportion of types of events with at least one casualty
arrange(summaryzero[summaryzero$harmful !=0,],
        desc(propHarmEvent), desc(harmful))
```

```
## # A tibble: 220 x 4
##    EVTYPE                     harmful propHarmEvent numEvent
##    <chr>                        <dbl>         <dbl>    <int>
##  1 Heat Wave                       70             1        1
##  2 TROPICAL STORM GORDON           51             1        1
##  3 SNOW/HIGH WINDS                 34             1        2
##  4 THUNDERSTORMW                   27             1        1
##  5 TORNADOES, TSTM WIND, HAIL      25             1        1
##  6 HIGH WIND AND SEAS              23             1        1
##  7 HEAT WAVE DROUGHT               19             1        1
##  8 WINTER STORM HIGH WINDS         16             1        1
##  9 GLAZE/ICE STORM                 15             1        1
## 10 COLD AND SNOW                   14             1        1
## # ... with 210 more rows
```
…
```
## `summarise()` ungrouping output (override with `.groups` argument)
```

```r
# Show the above result by descending order by :
## 1. maximum number of casualties
arrange(summaryzero[summaryzero$harmful !=0,], desc(harmful), desc(propHarmEvent))
```

```
## # A tibble: 428 x 4
##    EVTYPE                 harmful propHarmEvent numEvent
##    <chr>                    <dbl>         <dbl>    <int>
##  1 FLOOD             115032500000         0.397    25326
##  2 STORM SURGE        31300000000         0.663      261
##  3 HURRICANE/TYPHOON  16930000000         0.795       88
##  4 RIVER FLOOD        10000000000         0.613      173
##  5 TROPICAL STORM      5150000000         0.590      690
##  6 ICE STORM           5000500000         0.333     2006
##  7 WINTER STORM        5000000000         0.121    11433
##  8 STORM SURGE/TIDE    4000000000         0.318      148
##  9 HURRICANE           3500000000         0.707      174
## 10 TORNADO             2800000000         0.649    60652
## # ... with 418 more rows
```

```r
## 2.proportion of types of events with at least one casualty
arrange(summaryzero[summaryzero$harmful !=0,],
        desc(propHarmEvent), desc(harmful))
```

```
## # A tibble: 428 x 4
##    EVTYPE                        harmful propHarmEvent numEvent
##    <chr>                           <dbl>         <dbl>    <int>
##  1 TORNADOES, TSTM WIND, HAIL 1602500000             1        1
##  2 WILD FIRES                  619000000             1        4
##  3 HAILSTORM                   220000000             1        3
##  4 EXCESSIVE WETNESS           142000000             1        1
##  5 HURRICANE OPAL/HIGH WINDS   110000000             1        1
##  6 River Flooding              105580000             1        5
##  7 COLD AND WET CONDITIONS      66000000             1        1
##  8 WINTER STORM HIGH WINDS      65000000             1        1
##  9 HIGH WINDS/COLD              55000000             1        5
## 10 HURRICANE EMILY              50000000             1        1
## # ... with 418 more rows
```
…
